<mxfile host="65bd71144e">
    <diagram id="w3dXE5zYtmW96_oimgo9" name="第 1 页">
        <mxGraphModel dx="418" dy="362" grid="1" gridSize="10" guides="1" tooltips="1" connect="1" arrows="1" fold="1" page="1" pageScale="1" pageWidth="827" pageHeight="1169" math="0" shadow="0">
            <root>
                <mxCell id="0"/>
                <mxCell id="1" parent="0"/>
                <mxCell id="2" value="" style="triangle;whiteSpace=wrap;html=1;rotation=-90;horizontal=1;fillColor=none;fontColor=#000000;spacing=0;" parent="1" vertex="1">
                    <mxGeometry x="385" y="120" width="60" height="80" as="geometry"/>
                </mxCell>
                <mxCell id="3" value="处理器&lt;br&gt;" style="text;html=1;strokeColor=none;align=center;verticalAlign=middle;whiteSpace=wrap;rounded=0;spacing=0;fontColor=#000000;" parent="1" vertex="1">
                    <mxGeometry x="379" y="140" width="70" height="40" as="geometry"/>
                </mxCell>
                <mxCell id="4" value="缓存" style="shape=trapezoid;perimeter=trapezoidPerimeter;whiteSpace=wrap;html=1;fixedSize=1;size=50;verticalAlign=top;spacing=0;fillColor=none;fontColor=#000000;" parent="1" vertex="1">
                    <mxGeometry x="320" y="200" width="190" height="80" as="geometry"/>
                </mxCell>
                <mxCell id="6" value="&lt;span style=&quot;font-family: &amp;#34;helvetica&amp;#34; ; font-size: 10px ; font-style: normal ; font-weight: 400 ; letter-spacing: normal ; text-align: center ; text-indent: 0px ; text-transform: none ; word-spacing: 0px ; display: inline ; float: none&quot;&gt;1级&lt;/span&gt;" style="rounded=0;whiteSpace=wrap;html=1;verticalAlign=middle;fontSize=10;spacing=0;fontColor=#000000;fillColor=none;" parent="1" vertex="1">
                    <mxGeometry x="370" y="220" width="90" height="18" as="geometry"/>
                </mxCell>
                <mxCell id="7" value="寄存器" style="rounded=0;whiteSpace=wrap;html=1;verticalAlign=middle;fontSize=10;spacing=0;fontColor=#000000;fillColor=none;" parent="1" vertex="1">
                    <mxGeometry x="395" y="170" width="40" height="18" as="geometry"/>
                </mxCell>
                <mxCell id="8" value="&lt;span style=&quot;font-family: &amp;#34;helvetica&amp;#34; ; font-size: 10px ; font-style: normal ; font-weight: 400 ; letter-spacing: normal ; text-align: center ; text-indent: 0px ; text-transform: none ; word-spacing: 0px ; display: inline ; float: none&quot;&gt;2级&lt;/span&gt;" style="rounded=0;whiteSpace=wrap;html=1;verticalAlign=middle;fontSize=10;spacing=0;fontColor=#000000;fillColor=none;" parent="1" vertex="1">
                    <mxGeometry x="360" y="238" width="110" height="18" as="geometry"/>
                </mxCell>
                <mxCell id="9" value="&lt;span style=&quot;font-family: &amp;#34;helvetica&amp;#34; ; font-size: 10px ; font-style: normal ; font-weight: 400 ; letter-spacing: normal ; text-align: center ; text-indent: 0px ; text-transform: none ; word-spacing: 0px ; display: inline ; float: none&quot;&gt;3级&lt;/span&gt;" style="rounded=0;whiteSpace=wrap;html=1;verticalAlign=middle;fontSize=10;spacing=0;fontColor=#000000;fillColor=none;" parent="1" vertex="1">
                    <mxGeometry x="350" y="256" width="130" height="18" as="geometry"/>
                </mxCell>
                <mxCell id="10" value="主存" style="shape=trapezoid;perimeter=trapezoidPerimeter;whiteSpace=wrap;html=1;fixedSize=1;size=30;verticalAlign=top;spacing=0;fillColor=none;fontColor=#000000;" parent="1" vertex="1">
                    <mxGeometry x="280" y="290" width="270" height="50" as="geometry"/>
                </mxCell>
                <mxCell id="12" value="&lt;span style=&quot;font-family: &amp;#34;helvetica&amp;#34; ; font-size: 10px ; font-style: normal ; font-weight: 400 ; letter-spacing: normal ; text-align: center ; text-indent: 0px ; text-transform: none ; word-spacing: 0px ; display: inline ; float: none&quot;&gt;DRAM&lt;/span&gt;" style="rounded=0;whiteSpace=wrap;html=1;verticalAlign=middle;fontSize=10;spacing=0;fontColor=#000000;fillColor=none;" parent="1" vertex="1">
                    <mxGeometry x="310" y="310" width="210" height="20" as="geometry"/>
                </mxCell>
                <mxCell id="14" value="本地存储" style="shape=trapezoid;perimeter=trapezoidPerimeter;whiteSpace=wrap;html=1;fixedSize=1;size=30;verticalAlign=top;spacing=0;fillColor=none;fontColor=#000000;" parent="1" vertex="1">
                    <mxGeometry x="240" y="350" width="350" height="50" as="geometry"/>
                </mxCell>
                <mxCell id="15" value="远程存储" style="shape=trapezoid;perimeter=trapezoidPerimeter;whiteSpace=wrap;html=1;fixedSize=1;size=30;verticalAlign=top;spacing=0;fillColor=none;fontColor=#000000;" parent="1" vertex="1">
                    <mxGeometry x="200" y="410" width="430" height="50" as="geometry"/>
                </mxCell>
                <mxCell id="16" value="&lt;span style=&quot;font-family: &amp;#34;helvetica&amp;#34; ; font-size: 10px ; font-style: normal ; font-weight: 400 ; letter-spacing: normal ; text-align: center ; text-indent: 0px ; text-transform: none ; word-spacing: 0px ; display: inline ; float: none&quot;&gt;磁盘&lt;/span&gt;" style="rounded=0;whiteSpace=wrap;html=1;verticalAlign=middle;fontSize=10;spacing=0;fontColor=#000000;fillColor=none;" parent="1" vertex="1">
                    <mxGeometry x="270" y="370" width="90" height="20" as="geometry"/>
                </mxCell>
                <mxCell id="17" value="&lt;span style=&quot;font-family: &amp;#34;helvetica&amp;#34; ; font-size: 10px ; font-style: normal ; font-weight: 400 ; letter-spacing: normal ; text-align: center ; text-indent: 0px ; text-transform: none ; word-spacing: 0px ; display: inline ; float: none&quot;&gt;固态盘&lt;/span&gt;" style="rounded=0;whiteSpace=wrap;html=1;verticalAlign=middle;fontSize=10;spacing=0;fontColor=#000000;fillColor=none;" parent="1" vertex="1">
                    <mxGeometry x="369" y="370" width="90" height="20" as="geometry"/>
                </mxCell>
                <mxCell id="18" value="&lt;span style=&quot;font-family: &amp;#34;helvetica&amp;#34; ; font-size: 10px ; font-style: normal ; font-weight: 400 ; letter-spacing: normal ; text-align: center ; text-indent: 0px ; text-transform: none ; word-spacing: 0px ; display: inline ; float: none&quot;&gt;光盘&lt;/span&gt;" style="rounded=0;whiteSpace=wrap;html=1;verticalAlign=middle;fontSize=10;spacing=0;fontColor=#000000;fillColor=none;" parent="1" vertex="1">
                    <mxGeometry x="470" y="370" width="90" height="20" as="geometry"/>
                </mxCell>
                <mxCell id="21" value="&lt;font face=&quot;helvetica&quot;&gt;网络文件系统&lt;/font&gt;" style="rounded=0;whiteSpace=wrap;html=1;verticalAlign=middle;fontSize=10;spacing=0;fontColor=#000000;fillColor=none;" parent="1" vertex="1">
                    <mxGeometry x="230" y="430" width="90" height="20" as="geometry"/>
                </mxCell>
                <mxCell id="23" value="&lt;font face=&quot;helvetica&quot;&gt;云存储&lt;/font&gt;" style="rounded=0;whiteSpace=wrap;html=1;verticalAlign=middle;fontSize=10;spacing=0;fontColor=#000000;fillColor=none;" parent="1" vertex="1">
                    <mxGeometry x="510" y="430" width="90" height="20" as="geometry"/>
                </mxCell>
                <mxCell id="24" value="……" style="text;html=1;strokeColor=none;align=center;verticalAlign=middle;whiteSpace=wrap;rounded=0;fontSize=10;fontColor=#000000;spacing=0;" parent="1" vertex="1">
                    <mxGeometry x="394" y="430" width="40" height="20" as="geometry"/>
                </mxCell>
            </root>
        </mxGraphModel>
    </diagram>
</mxfile>